mDMEWdyhmhYJKwYBBAHaRw8BAQdAxbecQCcFiGLxA8Mx44C7Fnuq+cjbDQ8PkVs9kD0zLPW0M0ph
c29uIFRldm5hbiAodmF1bHQga2V5KSA8anRldm5hbit2YXVsdEBnaXRsYWIuY29tPoh/BBMWCAAn
BQJZ3KGaAhsDBQkB4TOABQsJCAcCBhUICQoLAgQWAgMBAh4BAheAAAoJEAPndoGLslTNxFAA/j0t
hZ0axx6CHS97U7ncsA7LzxGpy79iPTvUkb+ciJtIAQDYMIz/WZsdooNfE5RPK2iIdxWj3JID/Ax1
EpLCjJFqC7g4BFncoZoSCisGAQQBl1UBBQEBB0AaPA4+ghVNURezcGZXPM9vSEbO8pOkBiytW75C
iXiUbAMBCAeIZwQYFggADwUCWdyhmgIbDAUJAeEzgAAKCRAD53aBi7JUzT/dAP4zq82I74PV1rOJ
+4WKOpxN23oaaRsfRfS9QIoXFy1JvgD+LSWHS0tAh6XNxQvvBjAa8tdyJgiTZ/pyckLQD8jm2ws=
